rgenie in depth
…
The replicates table must have columns with names that begin with “vp_”, and which have values for the features you want to estimate variance components for. In this example, two RNA extractions were done, and so the cDNA replicates have one of two values for the “vp_extraction” column.

The get_variance_components function returns the variance components partitioning for each unique allele (including HDR, WT, and all deletions) which has at least allele_min_reads across all replicates, and which comprises at least allele_min_fraction as a fraction of all reads. Variance components are computed separately for cDNA and gDNA.

vc$vp_cDNA %>% dplyr::select(name, frac, extraction, Residuals, udp)
#> # A tibble: 86 x 5
#>    name          frac extraction Residuals udp                                  
#>    <chr>        <dbl>      <dbl>     <dbl> <chr>                                
#>  1 MUL1_rs67… 0.00276      0         1     ------------------------------------…
#>  2 MUL1_rs67… 0.00345      0         1     ------------------------------------…
#>  3 MUL1_rs67… 0.0124       0.598     0.402 ------------------------------------…
#>  4 MUL1_rs67… 0.00341      0         1     ------------------------------------…
#>  5 MUL1_rs67… 0.0344       0         1     ------------------------------------…
#>  6 MUL1_rs67… 0.00323      0         1     ------------------------------------…
#>  7 MUL1_rs67… 0.00112      0         1     ------------------------------------…
#>  8 MUL1_rs67… 0.00183      0         1     ------------------------------------…
#>  9 MUL1_rs67… 0.00189      0         1     ------------------------------------…
#> 10 MUL1_rs67… 0.0106       0.127     0.873 ------------------------------------…
#> # … with 76 more rows
…
